\relax 
\providecommand\hyper@newdestlabel[2]{}
\providecommand\HyperFirstAtBeginDocument{\AtBeginDocument}
\HyperFirstAtBeginDocument{\ifx\hyper@anchor\@undefined
\global\let\oldcontentsline\contentsline
\gdef\contentsline#1#2#3#4{\oldcontentsline{#1}{#2}{#3}}
\global\let\oldnewlabel\newlabel
\gdef\newlabel#1#2{\newlabelxx{#1}#2}
\gdef\newlabelxx#1#2#3#4#5#6{\oldnewlabel{#1}{{#2}{#3}}}
\AtEndDocument{\ifx\hyper@anchor\@undefined
\let\contentsline\oldcontentsline
\let\newlabel\oldnewlabel
\fi}
\fi}
\global\let\hyper@last\relax 
\gdef\HyperFirstAtBeginDocument#1{#1}
\providecommand\HyField@AuxAddToFields[1]{}
\providecommand\HyField@AuxAddToCoFields[2]{}
\providecommand \oddpage@label [2]{}
\select@language{croatian}
\@writefile{toc}{\select@language{croatian}}
\@writefile{lof}{\select@language{croatian}}
\@writefile{lot}{\select@language{croatian}}
\pgfsyspdfmark {pgfid1}{7296239}{49000519}
\@writefile{toc}{\contentsline {chapter}{\numberline {1}Uvod}{1}{chapter.1}}
\@writefile{lof}{\addvspace {10\p@ }}
\@writefile{lot}{\addvspace {10\p@ }}
\@writefile{toc}{\contentsline {chapter}{\numberline {2}Umjetna neuronska mre\IeC {\v z}a}{3}{chapter.2}}
\@writefile{lof}{\addvspace {10\p@ }}
\@writefile{lot}{\addvspace {10\p@ }}
\newlabel{chap:unn}{{2}{3}{Umjetna neuronska mreža}{chapter.2}{}}
\@writefile{lof}{\contentsline {figure}{\numberline {2.1}{\ignorespaces Umjetna neuronska mre\IeC {\v z}a\relax }}{3}{figure.caption.2}}
\providecommand*\caption@xref[2]{\@setref\relax\@undefined{#1}}
\newlabel{fig:mreza}{{2.1}{3}{Umjetna neuronska mreža\relax }{figure.caption.2}{}}
\@writefile{toc}{\contentsline {section}{\numberline {2.1}Umjetni neuron}{4}{section.2.1}}
\@writefile{lof}{\contentsline {figure}{\numberline {2.2}{\ignorespaces \IeC {\v Z}ivotinjski neuron\relax }}{4}{figure.caption.3}}
\newlabel{fig:bioneuron}{{2.2}{4}{Životinjski neuron\relax }{figure.caption.3}{}}
\@writefile{lof}{\contentsline {figure}{\numberline {2.3}{\ignorespaces Model neurona\relax }}{5}{figure.caption.4}}
\newlabel{fig:umjneuron}{{2.3}{5}{Model neurona\relax }{figure.caption.4}{}}
\newlabel{eq:izlaz_neurona}{{2.2}{5}{Umjetni neuron}{equation.2.1.2}{}}
\@writefile{toc}{\contentsline {subsection}{\numberline {2.1.1}Prijenosna funkcija}{5}{subsection.2.1.1}}
\citation{lecun-98b}
\citation{AISTATS2011_GlorotBB11}
\@writefile{lof}{\contentsline {figure}{\numberline {2.4}{\ignorespaces Prijenosne funkcije\relax }}{8}{figure.caption.5}}
\newlabel{fig:actfuns}{{2.4}{8}{Prijenosne funkcije\relax }{figure.caption.5}{}}
\citation{wiki:univapter}
\citation{AISTATS2011_GlorotBB11}
\@writefile{toc}{\contentsline {section}{\numberline {2.2}Neuronske mre\IeC {\v z}e kao univerzalni aproksimatori}{9}{section.2.2}}
\newlabel{th:uat}{{2.2.1}{9}{Univerzalni aproksimacijski teorem \cite {wiki:univapter}}{equation.2.2.13}{}}
\@writefile{toc}{\contentsline {section}{\numberline {2.3}Regresija i klasifikacija}{10}{section.2.3}}
\@writefile{toc}{\contentsline {section}{\numberline {2.4}Konvolucijske neuronske mre\IeC {\v z}e}{10}{section.2.4}}
\newlabel{sec:konv_mreze}{{2.4}{10}{Konvolucijske neuronske mreže}{section.2.4}{}}
\@writefile{lof}{\contentsline {figure}{\numberline {2.5}{\ignorespaces Primjer jednostavnog lokalno povezanog sloja s dijeljenim te\IeC {\v z}inama\relax }}{11}{figure.caption.6}}
\newlabel{fig:lok_pov}{{2.5}{11}{Primjer jednostavnog lokalno povezanog sloja s dijeljenim težinama\relax }{figure.caption.6}{}}
\@writefile{toc}{\contentsline {subsection}{\numberline {2.4.1}Konvolucijski sloj}{11}{subsection.2.4.1}}
\@writefile{lof}{\contentsline {figure}{\numberline {2.6}{\ignorespaces Primjer jednostavne dvodimenzionalne diskretne konvolucije (jedna jezgra dimenzija $2\times 2\times 1$) kojim se jedna mapa zna\IeC {\v c}ajki stvara na temelju ulazne mape zna\IeC {\v c}ajki\relax }}{12}{figure.caption.7}}
\newlabel{fig:konv}{{2.6}{12}{Primjer jednostavne dvodimenzionalne diskretne konvolucije (jedna jezgra dimenzija $2\times 2\times 1$) kojim se jedna mapa značajki stvara na temelju ulazne mape značajki\relax }{figure.caption.7}{}}
\@writefile{toc}{\contentsline {subsection}{\numberline {2.4.2}Sloj sa\IeC {\v z}imanja}{12}{subsection.2.4.2}}
\@writefile{lof}{\contentsline {figure}{\numberline {2.7}{\ignorespaces Sa\IeC {\v z}imanje maksimalnom vrijedno\IeC {\v s}\IeC {\'c}u\relax }}{13}{figure.caption.8}}
\newlabel{fig:max_pool}{{2.7}{13}{Sažimanje maksimalnom vrijednošću\relax }{figure.caption.8}{}}
\citation{nndl}
\@writefile{toc}{\contentsline {chapter}{\numberline {3}U\IeC {\v c}enje neuronske mre\IeC {\v z}e}{14}{chapter.3}}
\@writefile{lof}{\addvspace {10\p@ }}
\@writefile{lot}{\addvspace {10\p@ }}
\newlabel{chap:ucenje}{{3}{14}{Učenje neuronske mreže}{chapter.3}{}}
\citation{nndl,minnegloglik}
\@writefile{toc}{\contentsline {section}{\numberline {3.1}Gradijentni spust}{15}{section.3.1}}
\newlabel{eq:deltaE}{{3.5}{15}{Gradijentni spust}{equation.3.1.5}{}}
\newlabel{eq:deltaw}{{3.7}{16}{Gradijentni spust}{equation.3.1.7}{}}
\@writefile{toc}{\contentsline {subsection}{\numberline {3.1.1}Stohasti\IeC {\v c}ki gradijentni spust}{16}{subsection.3.1.1}}
\@writefile{toc}{\contentsline {subsection}{\numberline {3.1.2}Metode ubrzavanja u\IeC {\v c}enja}{16}{subsection.3.1.2}}
\@writefile{toc}{\contentsline {subsubsection}{Metoda zaleta}{16}{section*.9}}
\citation{Hinton-gd}
\citation{sruder-optim}
\@writefile{toc}{\contentsline {subsubsection}{Druge metode}{17}{section*.10}}
\@writefile{toc}{\contentsline {section}{\numberline {3.2}Propagacija pogre\IeC {\v s}ke unatrag}{17}{section.3.2}}
\@writefile{lof}{\contentsline {figure}{\numberline {3.1}{\ignorespaces Primjer neuronske mre\IeC {\v z}e na kojemu tamni bridovi povezuju \IeC {\v c}vorove \IeC {\v c}ije je pogre\IeC {\v s}ke potrebno izra\IeC {\v c}unati kako bi se dobila pogre\IeC {\v s}ka te\IeC {\v z}ine prvog sloja\relax }}{18}{figure.caption.11}}
\newlabel{fig:mrezabp}{{3.1}{18}{Primjer neuronske mreže na kojemu tamni bridovi povezuju čvorove čije je pogreške potrebno izračunati kako bi se dobila pogreška težine prvog sloja\relax }{figure.caption.11}{}}
\newlabel{eq:bp1}{{3.14}{18}{Propagacija pogreške unatrag}{equation.3.2.14}{}}
\newlabel{eq:bp2}{{3.15}{19}{Propagacija pogreške unatrag}{equation.3.2.15}{}}
\newlabel{eq:bp3}{{3.16}{19}{Propagacija pogreške unatrag}{equation.3.2.16}{}}
\@writefile{toc}{\contentsline {section}{\numberline {3.3}Pobolj\IeC {\v s}avanje u\IeC {\v c}enja i generalizacije}{20}{section.3.3}}
\newlabel{chap:regularizacija}{{3.3}{20}{Poboljšavanje učenja i generalizacije}{section.3.3}{}}
\@writefile{lof}{\contentsline {figure}{\numberline {3.2}{\ignorespaces Ovisnost pogre\IeC {\v s}ke $E$ na skupu za u\IeC {\v c}enje (zeleno) i na skupu za ispitivanje (plavo) o vremenu u\IeC {\v c}enja $t$\relax }}{20}{figure.caption.12}}
\newlabel{fig:ucenje}{{3.2}{20}{Ovisnost pogreške $E$ na skupu za učenje (zeleno) i na skupu za ispitivanje (plavo) o vremenu učenja $t$\relax }{figure.caption.12}{}}
\@writefile{toc}{\contentsline {subsection}{\numberline {3.3.1}Podjela skupa podataka}{20}{subsection.3.3.1}}
\citation{bullinaria-imprgen}
\@writefile{toc}{\contentsline {subsection}{\numberline {3.3.2}Pronala\IeC {\v z}enje dobre arhitekture mre\IeC {\v z}e}{21}{subsection.3.3.2}}
\@writefile{toc}{\contentsline {subsection}{\numberline {3.3.3}Regularizacija}{21}{subsection.3.3.3}}
\@writefile{toc}{\contentsline {subsubsection}{$L^1$ i $L^2$ regularizacija}{21}{section*.13}}
\citation{JMLR:v15:srivastava14a}
\@writefile{toc}{\contentsline {subsubsection}{Isklju\IeC {\v c}ivanje neurona}{22}{section*.14}}
\@writefile{toc}{\contentsline {subsubsection}{Umjetno pro\IeC {\v s}irivanje skupa za u\IeC {\v c}enje}{22}{section*.15}}
\@writefile{toc}{\contentsline {chapter}{\numberline {4}Semanti\IeC {\v c}ka segmentacija}{24}{chapter.4}}
\@writefile{lof}{\addvspace {10\p@ }}
\@writefile{lot}{\addvspace {10\p@ }}
\newlabel{chap:semseg}{{4}{24}{Semantička segmentacija}{chapter.4}{}}
\citation{Gould+al:ICCV09}
\@writefile{toc}{\contentsline {section}{\numberline {4.1}Skupovi podataka za semanti\IeC {\v c}ku segmentaciju}{25}{section.4.1}}
\@writefile{lof}{\contentsline {figure}{\numberline {4.1}{\ignorespaces Primjer slike iz skupa podataka \emph  {Stanford Background Dataset} obojane prema odgovaraju\IeC {\'c}im semanti\IeC {\v c}kim oznakama. Ljubi\IeC {\v c}asta boja ozna\IeC {\v c}ava prednji plan, naran\IeC {\v c}asta stabla, zelena cestu, plava gra\IeC {\dj }evine, a crvena nebo.\relax }}{26}{figure.caption.17}}
\newlabel{fig:stanfordbgdsi}{{4.1}{26}{Primjer slike iz skupa podataka \emph {Stanford Background Dataset} obojane prema odgovarajućim semantičkim oznakama. Ljubičasta boja označava prednji plan, narančasta stabla, zelena cestu, plava građevine, a crvena nebo.\relax }{figure.caption.17}{}}
\citation{farabet-pami-13}
\citation{fer:borko15ms}
\@writefile{toc}{\contentsline {chapter}{\numberline {5}Programska izvedba}{27}{chapter.5}}
\@writefile{lof}{\addvspace {10\p@ }}
\@writefile{lot}{\addvspace {10\p@ }}
\newlabel{chap:prog_ostv}{{5}{27}{Programska izvedba}{chapter.5}{}}
\@writefile{toc}{\contentsline {section}{\numberline {5.1}Kori\IeC {\v s}teni alati i tehnologije}{27}{section.5.1}}
\@writefile{toc}{\contentsline {section}{\numberline {5.2}Struktura programske izvedbe}{28}{section.5.2}}
\@writefile{lof}{\contentsline {figure}{\numberline {5.1}{\ignorespaces Datote\IeC {\v c}na struktura programske izvedbe\relax }}{28}{figure.caption.18}}
\newlabel{fig:datstruk}{{5.1}{28}{Datotečna struktura programske izvedbe\relax }{figure.caption.18}{}}
\@writefile{toc}{\contentsline {section}{\numberline {5.3}Priprema i pristup podacima}{28}{section.5.3}}
\newlabel{sec:priprema_podataka}{{5.3}{28}{Priprema i pristup podacima}{section.5.3}{}}
\@writefile{lof}{\contentsline {figure}{\numberline {5.2}{\ignorespaces Datote\IeC {\v c}na struktura skupa podataka u standardnom obliku\relax }}{29}{figure.caption.19}}
\newlabel{fig:datstrukskuppod}{{5.2}{29}{Datotečna struktura skupa podataka u standardnom obliku\relax }{figure.caption.19}{}}
\@writefile{toc}{\contentsline {section}{\numberline {5.4}Preprocesiranje}{29}{section.5.4}}
\newlabel{sec:preprocesiranje}{{5.4}{29}{Preprocesiranje}{section.5.4}{}}
\@writefile{toc}{\contentsline {section}{\numberline {5.5}Arhitektura mre\IeC {\v z}e}{30}{section.5.5}}
\newlabel{sec:arhitektura}{{5.5}{30}{Arhitektura mreže}{section.5.5}{}}
\citation{slic}
\@writefile{toc}{\contentsline {section}{\numberline {5.6}Postprocesiranje}{31}{section.5.6}}
\newlabel{sec:postprocesiranje}{{5.6}{31}{Postprocesiranje}{section.5.6}{}}
\@writefile{lof}{\contentsline {figure}{\numberline {5.3}{\ignorespaces Primjer slike iz skupa podataka \emph  {Stanford Background Dataset} s ozna\IeC {\v c}enim segmentima dobivenim algoritmom \emph  {SLIC}\relax }}{32}{figure.caption.20}}
\newlabel{fig:segm_ovce}{{5.3}{32}{Primjer slike iz skupa podataka \emph {Stanford Background Dataset} s označenim segmentima dobivenim algoritmom \emph {SLIC}\relax }{figure.caption.20}{}}
\@writefile{toc}{\contentsline {chapter}{\numberline {6}Rezultati}{33}{chapter.6}}
\@writefile{lof}{\addvspace {10\p@ }}
\@writefile{lot}{\addvspace {10\p@ }}
\newlabel{chap:rezultati}{{6}{33}{Rezultati}{chapter.6}{}}
\@writefile{toc}{\contentsline {section}{\numberline {6.1}Mjere}{33}{section.6.1}}
\citation{farabet-pami-13}
\citation{farabet-pami-13}
\citation{mohan2013}
\citation{fer:borko15ms}
\@writefile{toc}{\contentsline {section}{\numberline {6.2}Rezultati na skupu \emph  {Stanford Background Dataset}}{34}{section.6.2}}
\@writefile{lot}{\contentsline {table}{\numberline {6.1}{\ignorespaces Rezultati na skupu $Stanford Background Dataset$\relax }}{35}{table.caption.21}}
\newlabel{tab:rezultati}{{6.1}{35}{Rezultati na skupu $Stanford Background Dataset$\relax }{table.caption.21}{}}
\@writefile{lof}{\contentsline {figure}{\numberline {6.1}{\ignorespaces Ovisnost funkcije pogre\IeC {\v s}ke $E$ na skupu za u\IeC {\v c}enje (zeleno) i na skupu za ispitivanje (plavo) o broju zavr\IeC {\v s}enih epoha $t$.\relax }}{35}{figure.caption.22}}
\newlabel{fig:ucenje_mjereno}{{6.1}{35}{Ovisnost funkcije pogreške $E$ na skupu za učenje (zeleno) i na skupu za ispitivanje (plavo) o broju završenih epoha $t$.\relax }{figure.caption.22}{}}
\@writefile{lof}{\contentsline {figure}{\numberline {6.2}{\ignorespaces Primjer rezultata semanti\IeC {\v c}ke segmentacije. Naran\IeC {\v c}asta boja ozna\IeC {\v c}ava nebo, \IeC {\v z}uto-zelena stabla, plava gra\IeC {\dj }evine, zelena cestu, a ljubi\IeC {\v c}asta prednji plan.\relax }}{36}{figure.caption.23}}
\newlabel{fig:semseg-ulica-p}{{6.2}{36}{Primjer rezultata semantičke segmentacije. Narančasta boja označava nebo, žuto-zelena stabla, plava građevine, zelena cestu, a ljubičasta prednji plan.\relax }{figure.caption.23}{}}
\@writefile{lof}{\contentsline {figure}{\numberline {6.3}{\ignorespaces Primjer lo\IeC {\v s}ijeg rezultata semanti\IeC {\v c}ke segmentacije. Plava boja ozna\IeC {\v c}ava vodu, plavija ljubi\IeC {\v c}asta planinu, svijetloplava travu. Za ostale boje vrijedi isto kao na slici \ref  {fig:semseg-ulica-p}.\relax }}{36}{figure.caption.24}}
\newlabel{fig:semseg-losiji}{{6.3}{36}{Primjer lošijeg rezultata semantičke segmentacije. Plava boja označava vodu, plavija ljubičasta planinu, svijetloplava travu. Za ostale boje vrijedi isto kao na slici \ref {fig:semseg-ulica-p}.\relax }{figure.caption.24}{}}
\citation{farabet-pami-13}
\@writefile{toc}{\contentsline {chapter}{\numberline {7}Zaklju\IeC {\v c}ak}{37}{chapter.7}}
\@writefile{lof}{\addvspace {10\p@ }}
\@writefile{lot}{\addvspace {10\p@ }}
\newlabel{chap:zaklj}{{7}{37}{Zaključak}{chapter.7}{}}
\@input{bibliography.aux}
\@input{abstract.aux}
\@input{appendix.aux}
