<?xml version="1.0" encoding="UTF-8" standalone="no"?>
<svg
   xmlns:dc="http://purl.org/dc/elements/1.1/"
   xmlns:cc="http://creativecommons.org/ns#"
   xmlns:rdf="http://www.w3.org/1999/02/22-rdf-syntax-ns#"
   xmlns:svg="http://www.w3.org/2000/svg"
   xmlns="http://www.w3.org/2000/svg"
   xmlns:sodipodi="http://sodipodi.sourceforge.net/DTD/sodipodi-0.dtd"
   xmlns:inkscape="http://www.inkscape.org/namespaces/inkscape"
   inkscape:output_extension="org.inkscape.output.svg.inkscape"
   inkscape:version="0.91 r13725"
   version="1.1"
   id="neuron"
   height="633.71252"
   width="1179"
   sodipodi:docname="bioneuron.svg">
  <sodipodi:namedview
     pagecolor="#ffffff"
     bordercolor="#666666"
     borderopacity="1"
     objecttolerance="10"
     gridtolerance="10"
     guidetolerance="10"
     inkscape:pageopacity="0"
     inkscape:pageshadow="2"
     inkscape:window-width="1366"
     inkscape:window-height="704"
     id="namedview49"
     showgrid="false"
     inkscape:zoom="0.40183338"
     inkscape:cx="376.56322"
     inkscape:cy="130.72386"
     inkscape:window-x="0"
     inkscape:window-y="27"
     inkscape:window-maximized="1"
     inkscape:current-layer="Cell_Body"
     showguides="false"
     inkscape:snap-midpoints="false"
     inkscape:snap-smooth-nodes="true" />
  <defs
     id="defs3">
    <style
       type="text/css"
       id="style5">
		#Lines {
			stroke: #000000;
			stroke-width: 2;
			stroke-linecap: round;
		}
		#Cell {
			stroke: #000000;
			stroke-width: 2;
			fill-opacity: 1;
		}
		#Cell_Body {
			fill: #a88fd1;
		}
		#Cell_Body_Nucleus {
			fill: #2d7132;
		}
		#Small_Cell {
			fill: #f4cc4b;
		}
		#Small_Cell_Nucleus {
			fill: #d79b9b;
		}
	</style>
  </defs>
  <metadata
     id="metadata7">
    <rdf:RDF>
      <cc:Work
         rdf:about="">
        <dc:format>image/svg+xml</dc:format>
        <dc:type
           rdf:resource="http://purl.org/dc/dcmitype/StillImage" />
        <dc:title />
        <dc:creator>
          <cc:Agent>
            <dc:title>Quasar Jarosz, quasarj.com</dc:title>
          </cc:Agent>
        </dc:creator>
      </cc:Work>
    </rdf:RDF>
  </metadata>
  <g
     id="Cell">
    <g
       id="Cell_Body">
      <path
         d="m 200.15204,570.33465 c 1.14683,-0.84436 14.41666,-28.92245 9.15955,-26.50534 -5.25711,2.41711 -41.63017,26.82056 -30.15102,13.39698 11.47915,-13.42358 30.80618,-15.16952 37.17159,-36.88794 6.36541,-21.71842 16.77204,-53.35489 11.99694,-62.21545 -4.7751,-8.86056 -15.79482,-3.88783 -23.31616,-2.45418 -7.52134,1.43365 -19.91318,5.10325 -25.06646,10.88803 -5.15328,5.78478 -7.50219,11.49131 -13.39218,24.22017 -5.88999,12.72886 -9.36884,18.76049 -8.16917,43.31955 1.19967,24.55907 -3.57741,6.94515 -3.85173,-4.22608 -0.27432,-11.17123 1.74801,-21.39099 -6.82599,-10.51302 -8.574,10.87797 -17.07403,16.13167 -5.43894,0.73013 11.63509,-15.40154 14.02712,-20.87703 19.37355,-32.80159 5.34643,-11.92456 10.43575,-18.58761 0.3212,-15.69744 -10.11455,2.89017 -14.76025,10.01069 -21.45861,18.43545 -6.69836,8.42476 -10.28608,10.63321 -10.30188,21.5221 -0.0158,10.8889 -15.47686,32.91689 -11.94731,25.32076 3.52955,-7.59613 9.3681,-24.01139 6.46752,-26.29751 -2.90058,-2.28612 -3.34775,3.26659 -17.61249,9.55367 -14.26474,6.28708 -30.790915,-1.90374 -22.300613,-1.73198 8.490302,0.17176 16.881043,1.47961 26.448793,-5.26891 9.56775,-6.74852 15.93309,-15.83765 24.24869,-26.68929 8.3156,-10.85164 8.72521,-9.61485 7.3115,-10.41511 -1.41371,-0.80026 -4.85699,2.51513 -28.40835,1.63102 -23.551361,-0.8841 -19.962,-3.85161 -0.20658,-3.4315 19.75542,0.42011 35.03198,-6.35324 43.27936,-9.40181 8.24738,-3.04857 17.43587,-7.10787 33.14219,-16.86134 15.70632,-9.75347 14.45313,-14.70995 13.75678,-28.26524 -0.69635,-13.55528 -5.1375,-20.40822 -13.64728,-21.87944 -8.50978,-1.47122 -35.66782,5.36283 -48.54476,13.92132 -12.87694,8.55849 -33.46849,25.69826 -44.727075,39.49675 -11.258585,13.79849 -31.710646,26.81288 -37.897956,28.78524 -6.18731,1.97236 21.422667,-17.17901 25.15116,-22.5786 3.728493,-5.39959 8.875726,-10.32771 7.649786,-13.84492 -1.22594,-3.51721 -41.256035,10.13076 -38.217109,5.40778 3.038926,-4.72298 26.846284,-11.62834 34.963697,-12.28177 8.117413,-0.65343 36.991897,-19.47528 33.428377,-23.2715 -3.56352,-3.79622 -109.240973,18.27329 -105.198723,14.27312 4.04225,-4.00017 41.200934,-8.75977 45.334032,-12.79298 4.133098,-4.03321 -31.604392,-3.05984 -25.04925,-6.17149 6.555142,-3.11165 33.737151,1.47706 39.56098,1.72987 5.823829,0.25281 23.522621,-1.27196 23.971391,-4.52359 0.44877,-3.25163 -1.754955,-6.56398 -15.09384,-11.27581 -13.338886,-4.71183 -71.816699,7.83475 -65.581889,2.98246 6.23481,-4.85229 37.382593,-5.95781 37.329104,-8.43493 -0.05349,-2.47712 -39.698281,-9.88789 -35.052103,-11.22039 4.646178,-1.3325 31.10626,3.51886 41.187821,5.82807 10.081561,2.30921 14.684752,3.70557 12.335476,-0.84116 -2.349276,-4.54673 -4.891022,-6.28091 -11.460509,-8.26832 -6.569487,-1.98741 -22.009768,-3.06584 -32.538315,-7.80624 -10.528547,-4.7404 34.4824,5.96473 33.169911,-0.59249 -1.312489,-6.55722 -9.494558,-22.09399 -10.766137,-34.18013 -1.271579,-12.08614 14.946321,29.33126 21.049016,38.44262 6.102695,9.11136 6.798613,9.46609 10.435035,12.56172 3.636422,3.09563 15.13957,11.36965 26.52064,16.8368 11.38107,5.46715 27.24239,-2.79351 35.74096,-5.33265 8.49857,-2.53914 -0.99428,-15.61996 -7.83385,-17.75352 -6.83957,-2.13356 -41.187361,-22.07971 -26.994,-16.58137 14.19336,5.49834 28.19887,15.01159 25.20586,8.71855 -2.99301,-6.29304 -25.14538,-36.61398 -17.04487,-28.8217 8.10051,7.79228 25.71193,30.99674 31.582,36.41998 5.87007,5.42324 8.11739,8.03629 15.11465,8.38928 6.99726,0.35299 21.3506,-3.73741 23.24941,-13.13844 1.89881,-9.40103 0.8955,-21.1089 -2.56931,-25.47681 -3.46481,-4.36791 -18.48501,-16.84769 -26.26969,-22.17211 -7.78468,-5.32442 -61.6837,-18.96201 -44.89443,-17.23093 16.78927,1.73108 39.70773,12.90103 44.11585,8.02429 4.40812,-4.87674 -12.34333,-39.87302 -3.32082,-27.70538 9.02251,12.16764 8.77436,21.02996 11.887,28.69605 3.11264,7.66609 15.72779,15.78103 23.09117,18.85033 7.36338,3.0693 14.3973,1.95431 16.84648,-5.82216 2.44918,-7.77647 2.93803,-20.04291 -8.14256,-39.1694 -11.08059,-19.12649 -17.45512,-21.01212 -30.61523,-24.53461 -13.16011,-3.52249 -61.43844,-11.25789 -77.379125,-12.70437 -15.940684,-1.44648 -39.080968,4.22712 -33.717192,1.72146 5.363777,-2.50566 19.106762,-7.12798 31.884044,-6.42234 12.777283,0.70564 22.185163,3.74182 22.363993,2.16942 0.17883,-1.5724 -19.69999,-9.64201 -25.685826,-14.84182 -5.985836,-5.19981 35.059686,13.93703 41.920026,15.67222 6.86034,1.73519 26.98264,6.06181 24.01974,-1.00886 -2.9629,-7.07067 -32.80225,-25.55665 -42.77999,-28.69878 -9.97774,-3.14213 -86.651332,-9.82439 -72.03967,-11.64238 14.611662,-1.81799 44.649654,5.52712 42.030803,0.81939 -2.618851,-4.70773 -34.15075,-27.43907 -19.056291,-19.8044 15.09446,7.63467 19.730354,14.34135 26.888125,18.6975 7.157771,4.35615 21.474403,6.08337 13.048593,-5.16845 -8.42581,-11.25182 -41.580903,-91.01927 -21.744107,-55.15306 19.836797,35.86621 13.832587,29.44704 17.490307,29.23069 3.65772,-0.21635 1.10081,-35.06005 4.86728,-33.7889 3.76647,1.27115 0.27744,38.358 1.65852,45.92104 1.38108,7.56304 5.69328,13.22227 14.93419,22.54527 9.24091,9.323 36.7075,29.37175 42.40564,34.13831 5.69814,4.76656 24.68756,13.57934 26.03407,10.34872 1.34651,-3.23062 -2.76939,-12.75112 -10.14799,-21.79852 -7.3786,-9.0474 -18.16778,-12.50343 -31.07388,-18.0932 -12.9061,-5.58977 -5.56622,-5.4088 4.8503,-2.44884 10.41652,2.95996 15.87998,6.4787 16.15274,3.62515 0.27276,-2.85355 -8.96299,-16.40349 -14.31064,-23.01251 -5.34765,-6.60902 -14.76678,-15.87137 -22.79585,-20.81517 -8.02907,-4.9438 -24.62709,-10.87355 -18.32167,-10.84435 6.30542,0.0292 17.76746,4.77388 24.40287,8.3948 6.63541,3.62092 -7.5895,-38.28115 -2.95278,-33.20015 4.63672,5.081 7.98663,29.74615 14.15596,38.49854 6.16933,8.75239 10.81997,-24.80209 13.44681,-22.56603 2.62684,2.23606 -5.7154,25.51534 -5.47943,28.42843 0.23597,2.9131 10.83979,17.09869 14.87444,25.23987 4.03465,8.14118 9.95815,17.08142 10.90772,16.67554 0.94957,-0.40588 0.73087,-3.17474 -0.26324,-9.34691 -0.99411,-6.17217 -2.59851,-12.13955 -2.85765,-16.50327 -0.25914,-4.36372 -3.59106,-13.51406 -2.80294,-14.82708 0.78812,-1.31302 6.16283,8.6479 7.50963,14.71609 1.3468,6.06819 1.75795,8.42242 3.46784,8.26265 1.70989,-0.15977 13.00073,-21.14817 12.32765,-15.56385 -0.67308,5.58432 -8.35979,16.85285 -10.03741,23.09124 -1.67762,6.23839 -0.67603,9.64115 0.063,14.77756 0.73903,5.13641 3.83935,11.87545 6.57571,18.10457 2.73636,6.22912 12.37985,35.47561 15.80741,17.38353 3.42756,-18.09208 5.3886,-34.08095 5.3593,-42.01124 -0.0293,-7.93029 0.21468,-12.65473 -2.0805,-18.40627 -2.29518,-5.75154 -9.58201,-31.22321 -2.58832,-16.84458 6.99369,14.37863 8.32028,16.1498 10.11165,15.96552 1.79137,-0.18428 5.22757,-4.61148 7.28781,-10.81289 2.06024,-6.20141 -15.67351,-34.44231 -11.11634,-33.75365 4.55717,0.68866 15.64055,27.69769 17.73504,28.48271 2.09449,0.78502 18.84029,-18.26993 25.40197,-21.46162 6.56168,-3.19169 -21.40456,24.59798 -27.76468,34.08589 -6.36012,9.48791 -10.14437,15.81886 -8.15939,23.63514 1.98498,7.81628 34.8165,-41.60625 41.88194,-43.73627 7.06544,-2.13002 -14.21611,21.9708 -16.27952,28.15597 -2.06341,6.18517 17.93968,-12.61917 22.12657,-11.16473 4.18689,1.45444 -18.45124,14.57662 -31.98421,26.59993 -13.53297,12.02331 -9.70304,7.61367 -12.58042,12.9539 -2.87738,5.34023 -10.06278,52.27359 -3.59355,63.46917 6.46923,11.19558 24.56546,14.74401 39.15656,16.03009 14.59109,1.28608 27.54796,0.13094 31.54346,-7.60989 3.9955,-7.74083 -5.84993,-23.29428 -14.97778,-30.1434 -9.12785,-6.84912 -34.71387,-43.15834 -23.77713,-32.56321 10.93674,10.59513 13.42927,15.64153 21.09318,22.08394 7.66391,6.44241 11.40709,6.85149 12.25286,3.47206 0.84577,-3.37943 -0.0728,-11.61166 -0.68678,-20.7434 -0.61399,-9.13174 -2.94824,-26.78853 -2.12456,-42.75995 0.82368,-15.97142 8.99939,-27.45325 5.71684,-13.40945 -3.28255,14.0438 -0.57656,40.35174 1.57929,42.05011 2.15585,1.69837 10.8628,-17.49047 14.07449,-26.82546 3.21169,-9.33499 3.88977,-3.15547 0.89375,8.28952 -2.99602,11.44499 -5.38318,14.46519 -10.17924,25.0033 -4.79606,10.53811 -2.52351,30.58888 3.98672,38.39196 6.51023,7.80308 19.34318,-49.38973 22.79721,-66.52155 3.45403,-17.13182 -8.31798,-62.86705 -4.27401,-58.76886 4.04397,4.09819 7.8809,35.5444 10.34667,38.89277 2.46577,3.34837 5.22154,-15.41209 12.69463,-49.45134 7.47309,-34.03925 3.98305,6.57631 -1.05723,29.88318 -5.04028,23.30687 -17.97749,57.85511 -9.7172,52.3682 8.26029,-5.48691 11.73172,-7.80905 18.19714,-17.54332 6.46542,-9.73427 15.76026,-21.56469 24.11621,-28.40068 8.35595,-6.83599 20.57426,-29.29445 17.00392,-15.68058 -3.57034,13.61387 -35.63822,37.44787 -32.34314,43.21711 3.29508,5.76924 49.9768,-11.2078 53.46896,-7.72111 3.49216,3.48669 -43.38875,9.63769 -64.52592,25.04203 -21.13717,15.40434 -20.67953,21.50506 -34.59115,65.58235 -13.91162,44.07729 24.45014,68.88032 62.23006,77.6911 37.77992,8.81078 75.69923,23.11245 110.50191,33.41967 34.80268,10.30722 83.95034,20.38248 111.7988,21.92529 27.84846,1.54281 78.40119,-2.80704 112.79231,-13.80032 34.39112,-10.99328 59.78233,-27.50457 85.71836,-52.58126 25.93603,-25.07669 49.10556,-72.88784 59.59537,-91.05218 10.48981,-18.16434 28.13719,-59.03233 16.68335,-79.57332 -11.45384,-20.54099 -46.46469,-22.03622 -56.24732,-20.32798 -9.78263,1.70824 -25.79462,11.16118 -30.73459,13.97474 -4.93997,2.81356 -8.59551,7.94091 -12.82723,7.23654 -4.23172,-0.70437 -6.75062,-5.9945 -5.07703,-9.60639 1.67359,-3.61189 14.51562,-3.74366 18.61792,-5.71043 4.1023,-1.96677 15.3012,-6.45228 21.49708,-9.36016 6.19588,-2.90788 11.8073,-3.78067 12.33274,-5.23695 0.52544,-1.45628 -4.14475,-4.04594 -6.77605,-6.67825 -2.6313,-2.63231 -7.2818,-6.44572 -11.05651,-9.36421 -3.77471,-2.91849 -12.63826,-5.74997 -13.91818,-9.36944 -1.27992,-3.61947 2.01261,-7.27019 6.39401,-6.97916 4.3814,0.29103 6.3327,8.01752 10.23963,11.50393 3.90693,3.48641 14.97381,13.40108 22.03521,16.96941 7.0614,3.56833 22.67181,7.25864 31.15059,10.17898 8.47878,2.92034 14.69112,8.6978 17.25058,7.34965 2.55946,-1.34815 12.79266,-21.54612 16.02089,-27.35692 3.22823,-5.8108 5.0149,-11.26807 6.04976,-16.65709 1.03486,-5.38902 -0.8749,-22.91601 -1.29931,-26.44544 -0.42441,-3.52943 -4.23351,-6.62147 -3.9196,-11.215036 0.31391,-4.593566 9.41903,-5.685353 11.09779,-0.961204 1.67876,4.724149 -1.85087,9.37176 -1.41802,12.16836 0.43285,2.7966 1.35801,21.17857 4.13325,23.72551 2.77524,2.54694 8.50668,-0.22683 12.82299,-1.77562 4.31631,-1.54879 8.61192,-2.57424 11.85183,-3.89969 3.23991,-1.32545 6.70444,-4.27819 9.77655,-2.41855 3.07211,1.85964 4.48312,7.42311 1.4432,8.57492 -3.03992,1.15181 -10.2574,-0.15341 -12.48062,0.25127 -2.22322,0.40468 -4.78377,1.28967 -8.49702,2.37347 -3.71325,1.0838 -11.86239,3.46041 -14.16836,4.96042 -2.30597,1.50001 -5.93353,10.45114 -10.43476,17.88335 -4.50123,7.43221 -5.12707,8.9446 -9.06302,15.86249 -3.93595,6.91789 -5.36551,9.65264 -5.1034,12.73534 0.26211,3.0827 0.89452,6.58544 2.42523,10.26548 1.53071,3.68004 2.59345,10.08417 5.32669,11.33257 2.73324,1.2484 20.45876,-14.73793 32.13571,-23.4302 11.67695,-8.69227 26.16774,-15.72721 33.86138,-21.15524 7.69364,-5.42803 19.8393,-15.41901 20.96301,-20.02337 1.12371,-4.60436 3.63319,-11.79854 4.39225,-17.99863 0.75906,-6.20009 -3.19142,-12.34594 -0.0309,-14.23381 3.16052,-1.88787 8.60971,-0.50217 10.03381,2.79164 1.4241,3.29381 -3.24,7.13705 -4.2688,11.07361 -1.0288,3.93656 -3.88157,12.37331 -2.23607,15.89959 1.6455,3.52628 16.11518,-2.3262 23.28498,-4.38805 7.1698,-2.06185 8.6361,-9.13919 12.6357,-9.01123 3.9996,0.12796 9.2499,5.54382 6.6102,9.08978 -2.6397,3.54596 -8.2369,2.78659 -11.667,3.54575 -3.4301,0.75916 -6.0003,1.7558 -13.7046,3.73055 -7.70431,1.97475 -15.58694,5.36276 -20.10464,8.17681 -4.5177,2.81405 -5.73629,5.28008 -12.93606,10.49728 -7.19977,5.2172 -18.06447,11.16858 -17.30454,12.64647 0.75993,1.47789 46.50754,-5.56644 53.88454,-6.34648 7.377,-0.78004 12.8477,-5.15569 17.4807,-4.05427 4.633,1.10142 4.5284,8.24804 1.222,9.97749 -3.3064,1.72945 -9.6592,-0.27534 -17.0682,0.34685 -7.409,0.62219 -18.18249,1.5433 -31.38125,3.52954 -13.19876,1.98624 -37.48455,4.48796 -49.17247,13.46196 -11.68792,8.974 -33.51451,22.25914 -39.7509,40.26737 -6.23639,18.00823 -9.2097,25.40392 -4.64518,25.79805 4.56452,0.39413 28.17426,-6.34816 44.44614,-9.51811 16.27188,-3.16995 18.21143,-1.24096 33.54655,-10.84857 15.33512,-9.60761 20.58722,-27.76747 30.97941,-26.72739 10.3922,1.04008 -16.48437,21.63085 -23.61047,30.74625 -7.1261,9.1154 -4.1438,11.20205 3.23062,9.31522 7.37442,-1.88683 49.27945,-18.35439 61.57585,-22.70681 12.2963,-4.35243 7.5268,-3.15157 11.0925,-3.41717 3.5657,-0.2656 3.6441,3.24563 3.7343,7.53263 0.09,4.287 0.5525,2.31657 -8.5028,5.20475 -9.0553,2.88819 -36.5662,7.4929 -36.9866,11.0942 -0.4204,3.6013 55.9047,2.39447 65.9239,4.54285 10.0191,2.14838 7.4426,3.13538 7.1887,5.3487 -0.2539,2.21332 5.8651,1.74906 -5.6023,2.9933 -11.4673,1.24424 -101.91278,-16.69547 -89.56645,-2.00961 12.34633,14.68586 17.14645,20.12175 22.30725,30.83437 5.1608,10.71261 23.6273,20.9593 33.7237,23.44817 10.0965,2.48886 21.0601,-1.52997 22.6637,4.46275 1.6035,5.99273 12.3489,4.83524 0.8728,9.77705 -11.4761,4.94181 -26.1675,-7.92501 -34.0584,-11.42034 -7.8908,-3.49533 -6.0663,-2.75833 -10.3255,-3.61828 -4.2592,-0.85995 -8.1052,3.51637 -10.543,11.75475 -2.4378,8.23838 -2.768,21.99787 -6.4291,18.18593 -3.66113,-3.81194 -13.78619,-1.91148 -10.73866,-7.017 3.04753,-5.10552 8.84457,-10.86808 10.66426,-17.34555 1.8197,-6.47746 3.2172,-3.51346 -0.2668,-16.99958 -3.48401,-13.48612 -38.55908,-52.94597 -64.37546,-48.15055 -25.81637,4.79542 -21.74213,6.38618 -15.71003,10.48707 6.0321,4.10089 22.2011,15.5689 23.73244,22.35542 1.53134,6.78652 12.01298,6.57373 11.46009,11.46309 -0.55289,4.88936 2.71001,9.16655 -4.10387,9.0056 -6.81388,-0.16095 -15.60498,-18.378 -21.19211,-23.74535 -5.58713,-5.36735 -9.00154,-4.79159 -9.23122,0.96288 -0.22967,5.75447 -0.16599,7.05918 -0.31302,10.69727 -0.14703,3.6381 -0.0593,6.31867 -2.55095,9.54981 -2.49163,3.23114 -7.29419,2.52088 -8.43946,-0.22308 -1.14527,-2.74396 1.04162,-7.23572 2.8551,-13.21184 1.81348,-5.97612 3.82083,-9.96009 3.24209,-17.40464 -0.57874,-7.44454 -19.34026,-7.39344 -28.06139,-6.46546 -8.72113,0.92798 -11.81975,3.93657 -16.31674,12.07267 -4.49699,8.1361 -36.17959,70.3843 -62.02811,94.30406 -25.84852,23.91976 -56.72556,45.02463 -90.94878,56.63754 -34.22322,11.61291 -78.64572,15.5588 -118.85279,12.53035 -40.20707,-3.02845 -94.41467,-17.58634 -117.55531,-23.65079 -23.14064,-6.06445 -58.76439,-16.39667 -95.33973,-24.99227 -36.57534,-8.5956 -37.24821,14.22636 -39.385,31.90891 -2.13679,17.68255 -4.78343,25.84289 1.26544,31.07058 6.04887,5.22769 11.01509,2.39361 28.11187,7.22733 17.09678,4.83372 18.99133,6.97708 10.47868,5.99276 -8.51265,-0.98432 -31.3065,-6.7837 -27.37744,-0.51035 3.92906,6.27335 36.82324,30.07092 24.68436,25.08106 -12.13888,-4.98986 -36.35381,-32.57742 -50.26852,-37.67583 -13.91471,-5.09841 -23.17995,4.44446 -27.14955,12.49444 -3.9696,8.04998 -2.52996,34.59264 5.27842,42.63433 7.80838,8.04169 11.12106,10.5627 17.35722,13.16523 6.23616,2.60253 28.51306,10.95027 31.31658,14.64454 2.80352,3.69427 -2.12071,1.6222 -22.04859,-5.80387 -19.92788,-7.42607 1.09735,23.1695 6.34466,29.64817 5.24731,6.47867 18.32964,15.96833 8.88073,13.26947 -9.44891,-2.69886 -30.51464,-37.84415 -33.33206,-43.09411 -2.81742,-5.24996 -12.87911,-18.49702 -13.8736,-4.2032 -0.99448,14.29382 -16.65954,54.26931 -12.08217,29.46435 4.57737,-24.80497 1.58095,-75.46262 -3.0119,-81.79502 -4.59285,-6.3324 -11.55316,-12.84081 -28.91629,-12.67856 -17.36313,0.16224 -24.09231,20.3032 -24.83984,31.89616 -0.74753,11.59296 16.5855,39.1323 17.31716,48.93538 0.73166,9.80308 -10.48619,-14.00262 -21.12432,-28.39932 -10.63813,-14.3967 -13.88473,38.97253 -21.63021,50.81835 -7.74548,11.84582 -17.92912,10.70231 -13.34181,7.32485 4.58731,-3.37746 -2.29371,1.68877 -5e-5,4e-5 2.29366,-1.68873 -1.14685,0.84437 -2e-5,0 1.14683,-0.84437 -1.14679,0.84436 4e-5,0 z"
         id="path11"
         inkscape:connector-curvature="0"
         sodipodi:nodetypes="zzzzzzzzzzzzzzzzzzzzzzzzzzzzzzzzzzzzzzzzzzzzzzzzzzzzzzzzzzzzzzzzzzzzzzzzzzzzzzzzzzzzzzzzzzzzzzzzzzzzzzzzzzzzzzzzzzzzzzzzzzzzzzzzzzzzzzzzzzzzzzzzzzzzzzzzzzzzzzzzzzzzzzzzzzzzzzzzzzzzzzzzzzzzzzzzzzzzzzzzzzzzzzzzzzzzzzzzzzzzzzzzzzzzzzzzzzzzzzzzzzzzzzzzzzzzzzzzzzzzzzzzzzzzzzzzzzzzzzzzzzzzzzzzzzzzzzzz"
         style="fill:#aabec8;fill-opacity:1" />
    </g>
    <g
       id="Neck">
      <g
         id="Small_Cell">
        <path
           d="m 447.1708,379.01022 c 33.49016,8.32227 49.26897,13.47734 43.10606,31.21879 -6.16291,17.74145 -26.8911,7.87272 -53.6319,2.33523 -26.74079,-5.53748 -57.45319,-11.8084 -53.75579,-31.58358 3.6974,-19.77518 30.79146,-10.29271 64.28163,-1.97044 z"
           id="path16"
           inkscape:connector-curvature="0"
           sodipodi:nodetypes="zzzzz"
           style="fill:#dcdcdc;fill-opacity:1" />
        <path
           d="m 495.35649,412.77982 c 5.61031,-19.96618 25.75614,-11.66948 53.46549,-7.18526 27.70935,4.48422 55.06384,5.63417 53.08382,27.20155 -1.98002,21.56738 -29.95185,12.81407 -61.13813,7.69662 -31.18628,-5.11745 -51.02149,-7.74673 -45.41118,-27.71291 z"
           id="path18"
           inkscape:connector-curvature="0"
           sodipodi:nodetypes="zzzzz"
           style="fill:#dcdcdc;fill-opacity:1;stroke-width:2.03329062" />
        <path
           d="m 657.04569,411.55651 c 25.26106,-2.78845 50.26375,-12.32474 55.48513,9.16987 5.22138,21.49461 -16.96119,24.97396 -55.14487,27.96498 -38.18369,2.99102 -49.94768,0.63925 -49.73193,-16.39284 0.95973,-23.69772 20.21602,-18.49159 49.39167,-20.74201 z"
           id="path20"
           inkscape:connector-curvature="0"
           sodipodi:nodetypes="czzcc"
           style="fill:#dcdcdc;fill-opacity:1" />
        <path
           d="m 750.18649,381.50771 c 21.31264,-12.74032 35.58652,-28.45887 50.6253,-14.7739 15.03878,13.68497 -13.53397,36.62067 -29.51897,44.6943 -15.985,8.07363 -44.99121,28.90521 -54.32809,8.47849 -9.33688,-20.42672 11.90912,-25.65857 33.22176,-38.39889 z"
           id="path22"
           inkscape:connector-curvature="0"
           sodipodi:nodetypes="zzzzz"
           style="fill:#dcdcdc;fill-opacity:1" />
        <path
           d="m 805.79782,364.33174 c 15.58749,11.26728 28.32502,-5.64937 41.70018,-26.38469 13.37515,-20.73533 26.55826,-43.84346 10.83341,-52.87497 -15.72484,-9.03151 -22.22948,5.51403 -38.57617,30.03452 -16.34669,24.52049 -29.54491,37.95786 -13.95742,49.22514 z"
           id="path24"
           inkscape:connector-curvature="0"
           sodipodi:nodetypes="zzzzz"
           style="fill:#dcdcdc;fill-opacity:1" />
        <path
           d="m 279.92612,364.66656 c 13.8925,4.2783 19.48083,36.67869 -1.44072,45.95896 -20.92155,9.28028 -34.48151,-7.83602 -31.95993,-25.37744 2.52159,-17.54143 19.50816,-24.85983 33.40065,-20.58152 z"
           id="path16-9"
           inkscape:connector-curvature="0"
           sodipodi:nodetypes="zzzz"
           style="fill:#829baa;fill-opacity:1" />
      </g>
    </g>
  </g>
  <g
     id="Lines" />
</svg>
