\relax 
\providecommand\hyper@newdestlabel[2]{}
\bibdata{literatura}
\bibcite{minnegloglik}{{1}{2011}{{min}}{{}}}
\bibcite{wiki:univapter}{{2}{2016}{{wik}}{{}}}
\bibcite{fer:borko15ms}{{3}{}{{Borko}}{{}}}
\bibcite{bullinaria-imprgen}{{4}{2015}{{Bullinaria}}{{}}}
\bibcite{farabet-pami-13}{{5}{2013}{{Farabet et~al.}}{{Farabet, Couprie, Najman, i LeCun}}}
\bibcite{AISTATS2011_GlorotBB11}{{6}{2011}{{Glorot et~al.}}{{Glorot, Bordes, i Bengio}}}
\bibcite{Gould+al:ICCV09}{{7}{2009}{{Gould et~al.}}{{Gould, Fulton, i Koller}}}
\bibcite{Hinton-gd}{{8}{2012}{{Hinton}}{{}}}
\@writefile{toc}{\contentsline {chapter}{Literatura}{40}{chapter*.30}}
\bibcite{adam}{{9}{2014}{{Kingma i Ba}}{{}}}
\bibcite{lecun-98b}{{10}{1998}{{LeCun et~al.}}{{LeCun, Bottou, Orr, i Muller}}}
\bibcite{nndl}{{11}{2015}{{Nielsen}}{{}}}
\bibcite{colah}{{12}{2016}{{Olah}}{{}}}
\bibcite{slic}{{13}{2016}{{Radhakrishna~Achanta i S{\"u}sstrunk}}{{}}}
\bibcite{sruder-optim}{{14}{2016}{{Ruder}}{{}}}
\bibcite{JMLR:v15:srivastava14a}{{15}{2014}{{Srivastava et~al.}}{{Srivastava, Hinton, Krizhevsky, Sutskever, i Salakhutdinov}}}
\bibcite{cupic-ann}{{16}{2016}{{\IeC {\v C}upi\IeC {\'c}}}{{}}}
\bibstyle{fer}
\citation{farabet-pami-13}
\citation{fer:borko15ms}
\citation{bullinaria-imprgen}
\citation{colah}
\citation{nndl}
\citation{Gould+al:ICCV09}
\citation{cupic-ann}
\@setckpt{bibliography}{
\setcounter{page}{42}
\setcounter{equation}{0}
\setcounter{enumi}{6}
\setcounter{enumii}{0}
\setcounter{enumiii}{0}
\setcounter{enumiv}{0}
\setcounter{footnote}{0}
\setcounter{mpfootnote}{0}
\setcounter{part}{0}
\setcounter{chapter}{7}
\setcounter{section}{0}
\setcounter{subsection}{0}
\setcounter{subsubsection}{0}
\setcounter{paragraph}{0}
\setcounter{subparagraph}{0}
\setcounter{figure}{0}
\setcounter{table}{0}
\setcounter{parentequation}{0}
\setcounter{ContinuedFloat}{0}
\setcounter{NAT@ctr}{16}
\setcounter{pp@next@reset}{0}
\setcounter{float@type}{4}
\setcounter{subfigure}{0}
\setcounter{subtable}{0}
\setcounter{Item}{6}
\setcounter{Hfootnote}{13}
\setcounter{bookmark@seq@number}{32}
\setcounter{theorem}{0}
\setcounter{corollary}{0}
\setcounter{ALC@unique}{0}
\setcounter{ALC@line}{0}
\setcounter{ALC@rem}{0}
\setcounter{ALC@depth}{0}
\setcounter{section@level}{1}
}
