\relax 
\providecommand\hyper@newdestlabel[2]{}
\providecommand\HyperFirstAtBeginDocument{\AtBeginDocument}
\HyperFirstAtBeginDocument{\ifx\hyper@anchor\@undefined
\global\let\oldcontentsline\contentsline
\gdef\contentsline#1#2#3#4{\oldcontentsline{#1}{#2}{#3}}
\global\let\oldnewlabel\newlabel
\gdef\newlabel#1#2{\newlabelxx{#1}#2}
\gdef\newlabelxx#1#2#3#4#5#6{\oldnewlabel{#1}{{#2}{#3}}}
\AtEndDocument{\ifx\hyper@anchor\@undefined
\let\contentsline\oldcontentsline
\let\newlabel\oldnewlabel
\fi}
\fi}
\global\let\hyper@last\relax 
\gdef\HyperFirstAtBeginDocument#1{#1}
\providecommand\HyField@AuxAddToFields[1]{}
\providecommand\HyField@AuxAddToCoFields[2]{}
\providecommand \oddpage@label [2]{}
\@writefile{toc}{\beamer@endinputifotherversion {3.36pt}}
\@writefile{nav}{\beamer@endinputifotherversion {3.36pt}}
\select@language{croatian}
\@writefile{toc}{\select@language{croatian}}
\@writefile{lof}{\select@language{croatian}}
\@writefile{lot}{\select@language{croatian}}
\@writefile{nav}{\headcommand {\slideentry {0}{0}{1}{1/1}{}{0}}}
\@writefile{nav}{\headcommand {\beamer@framepages {1}{1}}}
\@writefile{nav}{\headcommand {\slideentry {0}{0}{2}{2/2}{}{0}}}
\@writefile{nav}{\headcommand {\beamer@framepages {2}{2}}}
\@writefile{toc}{\beamer@sectionintoc {1}{Uvod}{3}{0}{1}}
\@writefile{nav}{\headcommand {\sectionentry {1}{Uvod}{3}{Uvod}{0}}}
\@writefile{nav}{\headcommand {\beamer@sectionpages {1}{2}}}
\@writefile{nav}{\headcommand {\beamer@subsectionpages {1}{2}}}
\@writefile{nav}{\headcommand {\slideentry {1}{0}{1}{3/3}{}{0}}}
\@writefile{nav}{\headcommand {\beamer@framepages {3}{3}}}
\@writefile{nav}{\headcommand {\slideentry {1}{0}{2}{4/4}{}{0}}}
\@writefile{nav}{\headcommand {\beamer@framepages {4}{4}}}
\@writefile{toc}{\beamer@sectionintoc {2}{Umjetne neuronske mre\IeC {\v z}e}{5}{0}{2}}
\@writefile{nav}{\headcommand {\sectionentry {2}{Umjetne neuronske mre\IeC {\v z}e}{5}{Umjetne neuronske mre\IeC {\v z}e}{0}}}
\@writefile{nav}{\headcommand {\beamer@sectionpages {3}{4}}}
\@writefile{nav}{\headcommand {\beamer@subsectionpages {3}{4}}}
\@writefile{nav}{\headcommand {\slideentry {2}{0}{1}{5/5}{}{0}}}
\@writefile{nav}{\headcommand {\beamer@framepages {5}{5}}}
\providecommand*\caption@xref[2]{\@setref\relax\@undefined{#1}}
\newlabel{fig:umjneuron}{{1}{7}{Model neurona\relax }{Doc-Start}{}}
\@writefile{snm}{\beamer@slide {fig:umjneuron}{6}}
\@writefile{nav}{\headcommand {\slideentry {2}{0}{2}{6/6}{}{0}}}
\@writefile{nav}{\headcommand {\beamer@framepages {6}{6}}}
\newlabel{fig:mreza}{{2}{8}{Dvoslojna neuronska mreža\relax }{Doc-Start}{}}
\@writefile{snm}{\beamer@slide {fig:mreza}{7}}
\@writefile{nav}{\headcommand {\slideentry {2}{0}{3}{7/7}{}{0}}}
\@writefile{nav}{\headcommand {\beamer@framepages {7}{7}}}
\newlabel{fig:lok_pov}{{3}{9}{Jednostavni konvolucijski sloj\relax }{Doc-Start}{}}
\@writefile{snm}{\beamer@slide {fig:lok_pov}{8}}
\@writefile{nav}{\headcommand {\slideentry {2}{0}{4}{8/8}{}{0}}}
\@writefile{nav}{\headcommand {\beamer@framepages {8}{8}}}
\@writefile{toc}{\beamer@sectionintoc {3}{U\IeC {\v c}enje neuronske mre\IeC {\v z}e}{9}{0}{3}}
\@writefile{nav}{\headcommand {\sectionentry {3}{U\IeC {\v c}enje neuronske mre\IeC {\v z}e}{9}{U\IeC {\v c}enje neuronske mre\IeC {\v z}e}{0}}}
\@writefile{nav}{\headcommand {\beamer@sectionpages {5}{8}}}
\@writefile{nav}{\headcommand {\beamer@subsectionpages {5}{8}}}
\@writefile{nav}{\headcommand {\slideentry {3}{0}{1}{9/9}{}{0}}}
\@writefile{nav}{\headcommand {\beamer@framepages {9}{9}}}
\@writefile{nav}{\headcommand {\slideentry {3}{0}{2}{10/10}{}{0}}}
\@writefile{nav}{\headcommand {\beamer@framepages {10}{10}}}
\@writefile{nav}{\headcommand {\slideentry {3}{0}{3}{11/11}{}{0}}}
\@writefile{nav}{\headcommand {\beamer@framepages {11}{11}}}
\@writefile{nav}{\headcommand {\slideentry {3}{0}{4}{12/12}{}{0}}}
\@writefile{nav}{\headcommand {\beamer@framepages {12}{12}}}
\@writefile{toc}{\beamer@sectionintoc {4}{Semanti\IeC {\v c}ka segmentacija}{13}{0}{4}}
\@writefile{nav}{\headcommand {\sectionentry {4}{Semanti\IeC {\v c}ka segmentacija}{13}{Semanti\IeC {\v c}ka segmentacija}{0}}}
\@writefile{nav}{\headcommand {\beamer@sectionpages {9}{12}}}
\@writefile{nav}{\headcommand {\beamer@subsectionpages {9}{12}}}
\@writefile{nav}{\headcommand {\slideentry {4}{0}{1}{13/13}{}{0}}}
\@writefile{nav}{\headcommand {\beamer@framepages {13}{13}}}
\newlabel{fig:stanfordbgdsi}{{4}{15}{Slika iz skupa \emph {Stanford Background Dataset} obojana prema semantičkim oznakama. Ljubičasta boja označava prednji plan, narančasta stabla, zelena cestu, plava građevine, a crvena nebo.\relax }{Doc-Start}{}}
\@writefile{snm}{\beamer@slide {fig:stanfordbgdsi}{14}}
\@writefile{nav}{\headcommand {\slideentry {4}{0}{2}{14/14}{}{0}}}
\@writefile{nav}{\headcommand {\beamer@framepages {14}{14}}}
\@writefile{toc}{\beamer@sectionintoc {5}{Izvedba sustava za semanti\IeC {\v c}ku segmentaciju}{15}{0}{5}}
\@writefile{nav}{\headcommand {\sectionentry {5}{Izvedba sustava za semanti\IeC {\v c}ku segmentaciju}{15}{Izvedba sustava za semanti\IeC {\v c}ku segmentaciju}{0}}}
\@writefile{nav}{\headcommand {\beamer@sectionpages {13}{14}}}
\@writefile{nav}{\headcommand {\beamer@subsectionpages {13}{14}}}
\@writefile{nav}{\headcommand {\slideentry {5}{0}{1}{15/15}{}{0}}}
\@writefile{nav}{\headcommand {\beamer@framepages {15}{15}}}
\newlabel{fig:arhitektura}{{5}{17}{Arhitektura sustava\relax }{Doc-Start}{}}
\@writefile{snm}{\beamer@slide {fig:arhitektura}{16}}
\@writefile{nav}{\headcommand {\slideentry {5}{0}{2}{16/16}{}{0}}}
\@writefile{nav}{\headcommand {\beamer@framepages {16}{16}}}
\newlabel{fig:arhitektura-mreze}{{6}{18}{Arhitektura mreže\relax }{Doc-Start}{}}
\@writefile{snm}{\beamer@slide {fig:arhitektura-mreze}{17}}
\@writefile{nav}{\headcommand {\slideentry {5}{0}{3}{17/17}{}{0}}}
\@writefile{nav}{\headcommand {\beamer@framepages {17}{17}}}
\newlabel{fig:piramida}{{7}{19}{Laplaceova piramida Y-komponente.\relax }{Doc-Start}{}}
\@writefile{snm}{\beamer@slide {fig:piramida}{18}}
\@writefile{nav}{\headcommand {\slideentry {5}{0}{4}{18/18}{}{0}}}
\@writefile{nav}{\headcommand {\beamer@framepages {18}{18}}}
\newlabel{fig:segm_ovce}{{8}{20}{Primjer slike iz skupa podataka \emph {Stanford Background Dataset} s označenim segmentima dobivenim algoritmom \emph {SLIC}\relax }{Doc-Start}{}}
\@writefile{snm}{\beamer@slide {fig:segm_ovce}{19}}
\@writefile{nav}{\headcommand {\slideentry {5}{0}{5}{19/19}{}{0}}}
\@writefile{nav}{\headcommand {\beamer@framepages {19}{19}}}
\@writefile{nav}{\headcommand {\slideentry {5}{0}{6}{20/20}{}{0}}}
\@writefile{nav}{\headcommand {\beamer@framepages {20}{20}}}
\@writefile{toc}{\beamer@sectionintoc {6}{Rezultati}{21}{0}{6}}
\@writefile{nav}{\headcommand {\sectionentry {6}{Rezultati}{21}{Rezultati}{0}}}
\@writefile{nav}{\headcommand {\beamer@sectionpages {15}{20}}}
\@writefile{nav}{\headcommand {\beamer@subsectionpages {15}{20}}}
\@writefile{nav}{\headcommand {\slideentry {6}{0}{1}{21/21}{}{0}}}
\@writefile{nav}{\headcommand {\beamer@framepages {21}{21}}}
\@writefile{nav}{\headcommand {\slideentry {6}{0}{2}{22/22}{}{0}}}
\@writefile{nav}{\headcommand {\beamer@framepages {22}{22}}}
\newlabel{tab:rezultati}{{1}{24}{Rezultati na skupu \emph {Stanford Background Dataset}\relax }{Doc-Start}{}}
\@writefile{snm}{\beamer@slide {tab:rezultati}{23}}
\@writefile{nav}{\headcommand {\slideentry {6}{0}{3}{23/23}{}{0}}}
\@writefile{nav}{\headcommand {\beamer@framepages {23}{23}}}
\newlabel{fig:ucenje_mjereno}{{9}{25}{Ovisnost funkcije pogreške $E$ na skupu za učenje (zeleno) i na skupu za ispitivanje (plavo) o broju završenih epoha $t$.\relax }{Doc-Start}{}}
\@writefile{snm}{\beamer@slide {fig:ucenje_mjereno}{24}}
\@writefile{nav}{\headcommand {\slideentry {6}{0}{4}{24/24}{}{0}}}
\@writefile{nav}{\headcommand {\beamer@framepages {24}{24}}}
\newlabel{fig:ucenje_mjereno-tocnost}{{10}{26}{Ovisnost točnosti piksela na skupu za učenje (zeleno) i na skupu za ispitivanje (plavo) o broju završenih epoha $t$.\relax }{Doc-Start}{}}
\@writefile{snm}{\beamer@slide {fig:ucenje_mjereno-tocnost}{25}}
\@writefile{nav}{\headcommand {\slideentry {6}{0}{5}{25/25}{}{0}}}
\@writefile{nav}{\headcommand {\beamer@framepages {25}{25}}}
\newlabel{fig:semseg-ulica-p}{{11}{27}{Primjer rezultata semantičke segmentacije. Narančasta boja označava nebo, žuto-zelena stabla, plava građevine, zelena cestu, a ljubičasta prednji plan.\relax }{Doc-Start}{}}
\@writefile{snm}{\beamer@slide {fig:semseg-ulica-p}{26}}
\@writefile{nav}{\headcommand {\slideentry {6}{0}{6}{26/26}{}{0}}}
\@writefile{nav}{\headcommand {\beamer@framepages {26}{26}}}
\newlabel{fig:semseg-ulica-p}{{12}{28}{Primjer rezultata semantičke segmentacije. Narančasta boja označava nebo, žuto-zelena stabla, plava građevine, zelena cestu, a ljubičasta prednji plan.\relax }{Doc-Start}{}}
\@writefile{snm}{\beamer@slide {fig:semseg-ulica-p}{27}}
\@writefile{nav}{\headcommand {\slideentry {6}{0}{7}{27/27}{}{0}}}
\@writefile{nav}{\headcommand {\beamer@framepages {27}{27}}}
\@writefile{nav}{\headcommand {\beamer@partpages {1}{28}}}
\@writefile{nav}{\headcommand {\beamer@subsectionpages {28}{28}}}
\@writefile{nav}{\headcommand {\beamer@sectionpages {28}{28}}}
\@writefile{nav}{\headcommand {\beamer@documentpages {28}}}
\@writefile{nav}{\headcommand {\def \inserttotalframenumber {28}}}
\@writefile{toc}{\beamer@sectionintoc {7}{Kraj}{28}{0}{7}}
\@writefile{nav}{\headcommand {\sectionentry {7}{Kraj}{28}{Kraj}{0}}}
\@writefile{nav}{\headcommand {\beamer@sectionpages {21}{27}}}
\@writefile{nav}{\headcommand {\beamer@subsectionpages {21}{27}}}
\@writefile{nav}{\headcommand {\slideentry {7}{0}{1}{28/28}{}{0}}}
\@writefile{nav}{\headcommand {\beamer@framepages {28}{28}}}
