epoch, cost
0,0.37
1,0.158900
2,0.138900
3,0.132100
4,0.125900
5,0.118200
6,0.117700
7,0.109600
8,0.115700
9,0.106500
10,0.105900
11,0.103000
12,0.098800
13,0.097600
14,0.097600
15,0.098200
16,0.101000
17,0.097400
18,0.096300
19,0.094200
20,0.091100
21,0.090500
22,0.091700
23,0.088300
24,0.088600
25,0.088800
26,0.086200
27,0.085200
28,0.087600
29,0.089700
30,0.085300
31,0.082800
32,0.081800
33,0.084600
34,0.080300
35,0.080900
36,0.078300
37,0.079100
38,0.079800
39,0.080400
40,0.075300
41,0.085500
42,0.075700
43,0.074200
44,0.075700
45,0.072400
46,0.071100
47,0.070400
48,0.070400
49,0.076500
50,0.068400
51,0.070800
52,0.070600
53,0.076600
54,0.065900
55,0.066700
56,0.064900
57,0.065300
58,0.066200
59,0.064800
60,0.064100
61,0.064600
62,0.063500
63,0.060800
64,0.065600
65,0.063900
66,0.062300
67,0.065200
68,0.059900
69,0.061400
70,0.059100
71,0.060300
72,0.059600
73,0.061000
74,0.059000
75,0.059300
76,0.058200
77,0.057100
78,0.058600
79,0.062400
80,0.059700
81,0.056600
82,0.055800
83,0.059400
84,0.055000
85,0.055000
86,0.054600
87,0.055400
88,0.053900
89,0.053700
90,0.054300
91,0.054400
92,0.053300
93,0.053600
94,0.053300
95,0.051400
96,0.054300
97,0.053000
98,0.051000
99,0.052200
100,0.051600
101,0.052700
102,0.051200
103,0.050200
104,0.051500
105,0.052200
106,0.050300
107,0.051600
108,0.051200
109,0.050600
110,0.054500
111,0.050500
112,0.050700
113,0.050800
114,0.047800
115,0.049500
116,0.048800
117,0.046600
118,0.047500
119,0.047500
120,0.047100
121,0.047200
122,0.048400
123,0.046600
124,0.046700
125,0.046300
126,0.045900
127,0.046500
128,0.046400
129,0.046400
130,0.045300
131,0.048300
132,0.045500
133,0.045600
134,0.046000
135,0.044700
136,0.045900
137,0.045200
138,0.046400
139,0.045300
140,0.044500
141,0.046700
142,0.043600
143,0.043300
144,0.047100
145,0.044400
146,0.044000
147,0.043100
148,0.043900
149,0.042300
150,0.042800
151,0.042500
152,0.042700
153,0.043800
154,0.044100
155,0.041900
156,0.042400
157,0.042100
158,0.042700
159,0.043200
160,0.043100
