epoch, accuracy
0,0.12
2,0.462000
3,0.520000
4,0.537000
5,0.563000
6,0.576000
7,0.598000
8,0.624000
9,0.584000
10,0.616000
11,0.629000
12,0.630000
13,0.662000
14,0.666000
15,0.663000
16,0.658000
17,0.658000
18,0.651000
19,0.670000
20,0.668000
21,0.684000
22,0.688000
23,0.684000
24,0.697000
25,0.690000
26,0.686000
27,0.695000
28,0.700000
29,0.693000
30,0.693000
31,0.706000
32,0.707000
33,0.714000
34,0.708000
35,0.713000
36,0.722000
37,0.724000
38,0.717000
39,0.721000
40,0.724000
41,0.736000
42,0.703000
43,0.730000
44,0.737000
45,0.730000
46,0.742000
47,0.748000
48,0.751000
49,0.748000
50,0.728000
51,0.752000
52,0.745000
53,0.748000
54,0.725000
55,0.766000
56,0.761000
57,0.766000
58,0.767000
59,0.763000
60,0.763000
61,0.767000
62,0.773000
63,0.770000
64,0.780000
65,0.758000
66,0.769000
67,0.774000
68,0.768000
69,0.784000
70,0.774000
71,0.785000
72,0.783000
73,0.783000
74,0.778000
75,0.782000
76,0.781000
77,0.787000
78,0.790000
79,0.784000
80,0.771000
81,0.782000
82,0.795000
83,0.792000
84,0.778000
85,0.799000
86,0.795000
87,0.799000
88,0.801000
89,0.800000
90,0.803000
91,0.797000
92,0.798000
93,0.808000
94,0.802000
95,0.800000
96,0.808000
97,0.795000
98,0.799000
99,0.809000
100,0.805000
101,0.807000
102,0.801000
103,0.809000
104,0.812000
105,0.803000
106,0.798000
107,0.809000
108,0.807000
109,0.811000
110,0.809000
111,0.797000
112,0.806000
113,0.811000
114,0.814000
115,0.817000
116,0.813000
117,0.814000
118,0.823000
119,0.816000
120,0.821000
121,0.819000
122,0.817000
123,0.813000
124,0.822000
125,0.819000
126,0.820000
127,0.822000
128,0.828000
129,0.821000
130,0.818000
131,0.828000
132,0.818000
133,0.822000
134,0.825000
135,0.822000
136,0.827000
137,0.827000
138,0.824000
139,0.825000
140,0.821000
141,0.826000
142,0.821000
143,0.832000
144,0.832000
145,0.818000
146,0.827000
147,0.828000
148,0.830000
149,0.828000
150,0.838000
151,0.831000
152,0.834000
153,0.833000
154,0.828000
155,0.825000
156,0.838000
157,0.836000
158,0.837000
159,0.835000
160,0.831000
161,0.831000
