\relax 
\providecommand\hyper@newdestlabel[2]{}
\providecommand\HyperFirstAtBeginDocument{\AtBeginDocument}
\HyperFirstAtBeginDocument{\ifx\hyper@anchor\@undefined
\global\let\oldcontentsline\contentsline
\gdef\contentsline#1#2#3#4{\oldcontentsline{#1}{#2}{#3}}
\global\let\oldnewlabel\newlabel
\gdef\newlabel#1#2{\newlabelxx{#1}#2}
\gdef\newlabelxx#1#2#3#4#5#6{\oldnewlabel{#1}{{#2}{#3}}}
\AtEndDocument{\ifx\hyper@anchor\@undefined
\let\contentsline\oldcontentsline
\let\newlabel\oldnewlabel
\fi}
\fi}
\global\let\hyper@last\relax 
\gdef\HyperFirstAtBeginDocument#1{#1}
\providecommand\HyField@AuxAddToFields[1]{}
\providecommand\HyField@AuxAddToCoFields[2]{}
\providecommand \oddpage@label [2]{}
\select@language{croatian}
\@writefile{toc}{\select@language{croatian}}
\@writefile{lof}{\select@language{croatian}}
\@writefile{lot}{\select@language{croatian}}
\pgfsyspdfmark {pgfid1}{7296239}{49000519}
\@writefile{toc}{\contentsline {chapter}{\numberline {1}Uvod}{1}{chapter.1}}
\@writefile{lof}{\addvspace {10\p@ }}
\@writefile{lot}{\addvspace {10\p@ }}
\@writefile{toc}{\contentsline {chapter}{\numberline {2}Umjetna neuronska mre\IeC {\v z}a}{3}{chapter.2}}
\@writefile{lof}{\addvspace {10\p@ }}
\@writefile{lot}{\addvspace {10\p@ }}
\newlabel{chap:unm}{{2}{3}{Umjetna neuronska mreža}{chapter.2}{}}
\@writefile{lof}{\contentsline {figure}{\numberline {2.1}{\ignorespaces Umjetna neuronska mre\IeC {\v z}a\relax }}{3}{figure.caption.2}}
\providecommand*\caption@xref[2]{\@setref\relax\@undefined{#1}}
\newlabel{fig:mreza}{{2.1}{3}{Umjetna neuronska mreža\relax }{figure.caption.2}{}}
\@writefile{toc}{\contentsline {section}{\numberline {2.1}Umjetni neuron}{4}{section.2.1}}
\@writefile{lof}{\contentsline {figure}{\numberline {2.2}{\ignorespaces \IeC {\v Z}ivotinjski neuron\relax }}{4}{figure.caption.3}}
\newlabel{fig:bioneuron}{{2.2}{4}{Životinjski neuron\relax }{figure.caption.3}{}}
\@writefile{lof}{\contentsline {figure}{\numberline {2.3}{\ignorespaces Model neurona\relax }}{5}{figure.caption.4}}
\newlabel{fig:umjneuron}{{2.3}{5}{Model neurona\relax }{figure.caption.4}{}}
\newlabel{eq:izlaz_neurona}{{2.2}{5}{Umjetni neuron}{equation.2.1.2}{}}
\@writefile{toc}{\contentsline {subsection}{\numberline {2.1.1}Prijenosna funkcija}{5}{subsection.2.1.1}}
\citation{lecun-98b}
\citation{AISTATS2011_GlorotBB11}
\@writefile{lof}{\contentsline {figure}{\numberline {2.4}{\ignorespaces Prijenosne funkcije\relax }}{8}{figure.caption.5}}
\newlabel{fig:actfuns}{{2.4}{8}{Prijenosne funkcije\relax }{figure.caption.5}{}}
\citation{wiki:univapter}
\citation{AISTATS2011_GlorotBB11}
\@writefile{toc}{\contentsline {section}{\numberline {2.2}Neuronske mre\IeC {\v z}e kao univerzalni aproksimatori}{9}{section.2.2}}
\newlabel{th:uat}{{2.2.1}{9}{Univerzalni aproksimacijski teorem \cite {wiki:univapter}}{equation.2.2.13}{}}
\@writefile{toc}{\contentsline {section}{\numberline {2.3}Regresija i klasifikacija}{10}{section.2.3}}
\@writefile{toc}{\contentsline {section}{\numberline {2.4}Konvolucijske neuronske mre\IeC {\v z}e}{10}{section.2.4}}
\newlabel{sec:konv_mreze}{{2.4}{10}{Konvolucijske neuronske mreže}{section.2.4}{}}
\@writefile{lof}{\contentsline {figure}{\numberline {2.5}{\ignorespaces Primjer jednostavnog lokalno povezanog sloja s dijeljenim te\IeC {\v z}inama\relax }}{11}{figure.caption.6}}
\newlabel{fig:lok_pov}{{2.5}{11}{Primjer jednostavnog lokalno povezanog sloja s dijeljenim težinama\relax }{figure.caption.6}{}}
\@writefile{toc}{\contentsline {subsection}{\numberline {2.4.1}Konvolucijski sloj}{11}{subsection.2.4.1}}
\@writefile{lof}{\contentsline {figure}{\numberline {2.6}{\ignorespaces Primjer jednostavne dvodimenzionalne diskretne konvolucije (jedna jezgra dimenzija $2\times 2\times 1$) kojom se stvara jedna mapa zna\IeC {\v c}ajki na temelju jedne ulazne mape zna\IeC {\v c}ajki\relax }}{12}{figure.caption.7}}
\newlabel{fig:konv}{{2.6}{12}{Primjer jednostavne dvodimenzionalne diskretne konvolucije (jedna jezgra dimenzija $2\times 2\times 1$) kojom se stvara jedna mapa značajki na temelju jedne ulazne mape značajki\relax }{figure.caption.7}{}}
\@writefile{toc}{\contentsline {subsection}{\numberline {2.4.2}Sloj sa\IeC {\v z}imanja}{12}{subsection.2.4.2}}
\@writefile{lof}{\contentsline {figure}{\numberline {2.7}{\ignorespaces Sa\IeC {\v z}imanje maksimalnom vrijedno\IeC {\v s}\IeC {\'c}u\relax }}{13}{figure.caption.8}}
\newlabel{fig:max_pool}{{2.7}{13}{Sažimanje maksimalnom vrijednošću\relax }{figure.caption.8}{}}
\citation{nndl}
\@writefile{toc}{\contentsline {chapter}{\numberline {3}U\IeC {\v c}enje neuronske mre\IeC {\v z}e}{14}{chapter.3}}
\@writefile{lof}{\addvspace {10\p@ }}
\@writefile{lot}{\addvspace {10\p@ }}
\newlabel{chap:ucenje}{{3}{14}{Učenje neuronske mreže}{chapter.3}{}}
\citation{nndl,minnegloglik}
\@writefile{toc}{\contentsline {section}{\numberline {3.1}Gradijentni spust}{15}{section.3.1}}
\newlabel{eq:deltaE}{{3.5}{15}{Gradijentni spust}{equation.3.1.5}{}}
\newlabel{eq:deltaw}{{3.7}{16}{Gradijentni spust}{equation.3.1.7}{}}
\@writefile{toc}{\contentsline {subsection}{\numberline {3.1.1}Stohasti\IeC {\v c}ki gradijentni spust}{16}{subsection.3.1.1}}
\@writefile{toc}{\contentsline {subsection}{\numberline {3.1.2}Postupci ubrzavanja u\IeC {\v c}enja}{16}{subsection.3.1.2}}
\@writefile{toc}{\contentsline {subsubsection}{Dodavanje inercije}{16}{section*.9}}
\citation{Hinton-gd}
\citation{sruder-optim}
\citation{adam}
\@writefile{toc}{\contentsline {subsubsection}{Drugi postupcii algoritmi}{17}{section*.10}}
\@writefile{toc}{\contentsline {subsubsection}{Algoritam \emph  {Adam}}{17}{section*.11}}
\@writefile{toc}{\contentsline {section}{\numberline {3.2}Propagacija pogre\IeC {\v s}ke unatrag}{18}{section.3.2}}
\@writefile{lof}{\contentsline {figure}{\numberline {3.1}{\ignorespaces Primjer neuronske mre\IeC {\v z}e na kojemu tamni bridovi povezuju \IeC {\v c}vorove \IeC {\v c}ije je pogre\IeC {\v s}ke potrebno izra\IeC {\v c}unati kako bi se dobila pogre\IeC {\v s}ka jedne te\IeC {\v z}ine prvog sloja\relax }}{18}{figure.caption.12}}
\newlabel{fig:mrezabp}{{3.1}{18}{Primjer neuronske mreže na kojemu tamni bridovi povezuju čvorove čije je pogreške potrebno izračunati kako bi se dobila pogreška jedne težine prvog sloja\relax }{figure.caption.12}{}}
\newlabel{eq:y_dogovor}{{3.16}{19}{Propagacija pogreške unatrag}{equation.3.2.16}{}}
\newlabel{eq:bp1}{{3.19}{19}{Propagacija pogreške unatrag}{equation.3.2.19}{}}
\newlabel{eq:bp2}{{3.21}{19}{Propagacija pogreške unatrag}{equation.3.2.21}{}}
\newlabel{eq:bp3}{{3.22}{20}{Propagacija pogreške unatrag}{equation.3.2.22}{}}
\@writefile{toc}{\contentsline {section}{\numberline {3.3}Pobolj\IeC {\v s}avanje u\IeC {\v c}enja i generalizacije}{21}{section.3.3}}
\newlabel{chap:regularizacija}{{3.3}{21}{Poboljšavanje učenja i generalizacije}{section.3.3}{}}
\@writefile{lof}{\contentsline {figure}{\numberline {3.2}{\ignorespaces Ovisnost pogre\IeC {\v s}ke $E$ na skupu za u\IeC {\v c}enje (zeleno) i na skupu za ispitivanje (plavo) o vremenu u\IeC {\v c}enja $t$\relax }}{21}{figure.caption.13}}
\newlabel{fig:ucenje}{{3.2}{21}{Ovisnost pogreške $E$ na skupu za učenje (zeleno) i na skupu za ispitivanje (plavo) o vremenu učenja $t$\relax }{figure.caption.13}{}}
\@writefile{toc}{\contentsline {subsection}{\numberline {3.3.1}Podjela skupa podataka}{21}{subsection.3.3.1}}
\citation{bullinaria-imprgen}
\@writefile{toc}{\contentsline {subsection}{\numberline {3.3.2}Pronala\IeC {\v z}enje dobre arhitekture mre\IeC {\v z}e}{22}{subsection.3.3.2}}
\@writefile{toc}{\contentsline {subsection}{\numberline {3.3.3}Regularizacija}{22}{subsection.3.3.3}}
\@writefile{toc}{\contentsline {subsubsection}{$L^1$-regularizacija i $L^2$-regularizacija}{22}{section*.14}}
\citation{JMLR:v15:srivastava14a}
\@writefile{toc}{\contentsline {subsubsection}{Isklju\IeC {\v c}ivanje neurona}{23}{section*.15}}
\@writefile{toc}{\contentsline {subsubsection}{Umjetno pro\IeC {\v s}irivanje skupa za u\IeC {\v c}enje}{23}{section*.16}}
\@writefile{toc}{\contentsline {chapter}{\numberline {4}Semanti\IeC {\v c}ka segmentacija}{25}{chapter.4}}
\@writefile{lof}{\addvspace {10\p@ }}
\@writefile{lot}{\addvspace {10\p@ }}
\newlabel{chap:semseg}{{4}{25}{Semantička segmentacija}{chapter.4}{}}
\citation{Gould+al:ICCV09}
\@writefile{toc}{\contentsline {section}{\numberline {4.1}Skupovi podataka za semanti\IeC {\v c}ku segmentaciju}{26}{section.4.1}}
\@writefile{lof}{\contentsline {figure}{\numberline {4.1}{\ignorespaces Primjer slike iz skupa podataka \emph  {Stanford Background Dataset} obojane prema semanti\IeC {\v c}kim oznakama. Ljubi\IeC {\v c}asta boja ozna\IeC {\v c}ava prednji plan, naran\IeC {\v c}asta stabla, zelena cestu, plava gra\IeC {\dj }evine, a crvena nebo.\relax }}{27}{figure.caption.18}}
\newlabel{fig:stanfordbgdsi}{{4.1}{27}{Primjer slike iz skupa podataka \emph {Stanford Background Dataset} obojane prema semantičkim oznakama. Ljubičasta boja označava prednji plan, narančasta stabla, zelena cestu, plava građevine, a crvena nebo.\relax }{figure.caption.18}{}}
\citation{farabet-pami-13}
\citation{fer:borko15ms}
\@writefile{toc}{\contentsline {chapter}{\numberline {5}Programska izvedba}{28}{chapter.5}}
\@writefile{lof}{\addvspace {10\p@ }}
\@writefile{lot}{\addvspace {10\p@ }}
\newlabel{chap:prog_ostv}{{5}{28}{Programska izvedba}{chapter.5}{}}
\@writefile{toc}{\contentsline {section}{\numberline {5.1}Kori\IeC {\v s}teni alati i tehnologije}{28}{section.5.1}}
\@writefile{toc}{\contentsline {section}{\numberline {5.2}Struktura programske izvedbe}{29}{section.5.2}}
\@writefile{lof}{\contentsline {figure}{\numberline {5.1}{\ignorespaces Osnovna datote\IeC {\v c}na struktura programske izvedbe\relax }}{29}{figure.caption.19}}
\newlabel{fig:datstruk}{{5.1}{29}{Osnovna datotečna struktura programske izvedbe\relax }{figure.caption.19}{}}
\@writefile{lof}{\contentsline {figure}{\numberline {5.2}{\ignorespaces Osnovna arhitektura sustava\relax }}{30}{figure.caption.20}}
\newlabel{fig:arhitektura}{{5.2}{30}{Osnovna arhitektura sustava\relax }{figure.caption.20}{}}
\@writefile{toc}{\contentsline {section}{\numberline {5.3}Priprema i pristup podacima}{30}{section.5.3}}
\newlabel{sec:priprema_podataka}{{5.3}{30}{Priprema i pristup podacima}{section.5.3}{}}
\@writefile{lof}{\contentsline {figure}{\numberline {5.3}{\ignorespaces Datote\IeC {\v c}na struktura skupa podataka u standardnom obliku\relax }}{30}{figure.caption.21}}
\newlabel{fig:datstrukskuppod}{{5.3}{30}{Datotečna struktura skupa podataka u standardnom obliku\relax }{figure.caption.21}{}}
\@writefile{toc}{\contentsline {section}{\numberline {5.4}Preprocesiranje}{31}{section.5.4}}
\newlabel{sec:preprocesiranje}{{5.4}{31}{Preprocesiranje}{section.5.4}{}}
\@writefile{lof}{\contentsline {figure}{\numberline {5.4}{\ignorespaces Prve tri razine Laplaceove piramide. Slika je dobivena skaliranjem vrijednosti iz raspona $[-1,1]$ na raspon $[0,255]$.\relax }}{31}{figure.caption.22}}
\newlabel{fig:piramida}{{5.4}{31}{Prve tri razine Laplaceove piramide. Slika je dobivena skaliranjem vrijednosti iz raspona $[-1,1]$ na raspon $[0,255]$.\relax }{figure.caption.22}{}}
\@writefile{toc}{\contentsline {section}{\numberline {5.5}Arhitektura mre\IeC {\v z}e}{32}{section.5.5}}
\newlabel{sec:arhitektura}{{5.5}{32}{Arhitektura mreže}{section.5.5}{}}
\@writefile{lof}{\contentsline {figure}{\numberline {5.5}{\ignorespaces Arhitektura mre\IeC {\v z}e\relax }}{32}{figure.caption.23}}
\newlabel{fig:arhitektura-mreze}{{5.5}{32}{Arhitektura mreže\relax }{figure.caption.23}{}}
\citation{slic}
\@writefile{toc}{\contentsline {section}{\numberline {5.6}Postprocesiranje}{33}{section.5.6}}
\newlabel{sec:postprocesiranje}{{5.6}{33}{Postprocesiranje}{section.5.6}{}}
\@writefile{lof}{\contentsline {figure}{\numberline {5.6}{\ignorespaces Primjer slike iz skupa podataka \emph  {Stanford Background Dataset} s ozna\IeC {\v c}enim segmentima dobivenim algoritmom \emph  {SLIC}\relax }}{34}{figure.caption.24}}
\newlabel{fig:segm_ovce}{{5.6}{34}{Primjer slike iz skupa podataka \emph {Stanford Background Dataset} s označenim segmentima dobivenim algoritmom \emph {SLIC}\relax }{figure.caption.24}{}}
\@writefile{toc}{\contentsline {chapter}{\numberline {6}Rezultati}{35}{chapter.6}}
\@writefile{lof}{\addvspace {10\p@ }}
\@writefile{lot}{\addvspace {10\p@ }}
\newlabel{chap:rezultati}{{6}{35}{Rezultati}{chapter.6}{}}
\@writefile{toc}{\contentsline {section}{\numberline {6.1}Mjere}{35}{section.6.1}}
\@writefile{toc}{\contentsline {section}{\numberline {6.2}Rezultati na skupu \emph  {Stanford Background Dataset}}{36}{section.6.2}}
\@writefile{lot}{\contentsline {table}{\numberline {6.1}{\ignorespaces Rezultati na skupu \emph  {Stanford Background Dataset}\relax }}{37}{table.caption.25}}
\newlabel{tab:rezultati}{{6.1}{37}{Rezultati na skupu \emph {Stanford Background Dataset}\relax }{table.caption.25}{}}
\@writefile{lof}{\contentsline {figure}{\numberline {6.1}{\ignorespaces Ovisnost funkcije pogre\IeC {\v s}ke $E$ na skupu za u\IeC {\v c}enje (zeleno) i na skupu za ispitivanje (plavo) o broju zavr\IeC {\v s}enih epoha $t$.\relax }}{37}{figure.caption.26}}
\newlabel{fig:ucenje_mjereno}{{6.1}{37}{Ovisnost funkcije pogreške $E$ na skupu za učenje (zeleno) i na skupu za ispitivanje (plavo) o broju završenih epoha $t$.\relax }{figure.caption.26}{}}
\@writefile{lof}{\contentsline {figure}{\numberline {6.2}{\ignorespaces Ovisnost to\IeC {\v c}nosti piksela na skupu za u\IeC {\v c}enje (zeleno) i na skupu za ispitivanje (plavo) o broju zavr\IeC {\v s}enih epoha $t$.\relax }}{38}{figure.caption.27}}
\newlabel{fig:ucenje_mjereno-tocnost}{{6.2}{38}{Ovisnost točnosti piksela na skupu za učenje (zeleno) i na skupu za ispitivanje (plavo) o broju završenih epoha $t$.\relax }{figure.caption.27}{}}
\@writefile{lof}{\contentsline {figure}{\numberline {6.3}{\ignorespaces Primjer rezultata semanti\IeC {\v c}ke segmentacije. Naran\IeC {\v c}asta boja ozna\IeC {\v c}ava nebo, \IeC {\v z}uto-zelena stabla, plava gra\IeC {\dj }evine, zelena cestu, a ljubi\IeC {\v c}asta prednji plan.\relax }}{38}{figure.caption.28}}
\newlabel{fig:semseg-ulica-p}{{6.3}{38}{Primjer rezultata semantičke segmentacije. Narančasta boja označava nebo, žuto-zelena stabla, plava građevine, zelena cestu, a ljubičasta prednji plan.\relax }{figure.caption.28}{}}
\@writefile{lof}{\contentsline {figure}{\numberline {6.4}{\ignorespaces Primjer lo\IeC {\v s}ijeg rezultata semanti\IeC {\v c}ke segmentacije. Plava boja ozna\IeC {\v c}ava vodu, plavija ljubi\IeC {\v c}asta planinu, svijetloplava travu. Za ostale boje vrijedi isto kao na slici \ref  {fig:semseg-ulica-p}.\relax }}{38}{figure.caption.29}}
\newlabel{fig:semseg-losiji}{{6.4}{38}{Primjer lošijeg rezultata semantičke segmentacije. Plava boja označava vodu, plavija ljubičasta planinu, svijetloplava travu. Za ostale boje vrijedi isto kao na slici \ref {fig:semseg-ulica-p}.\relax }{figure.caption.29}{}}
\citation{farabet-pami-13}
\@writefile{toc}{\contentsline {chapter}{\numberline {7}Zaklju\IeC {\v c}ak}{39}{chapter.7}}
\@writefile{lof}{\addvspace {10\p@ }}
\@writefile{lot}{\addvspace {10\p@ }}
\newlabel{chap:zaklj}{{7}{39}{Zaključak}{chapter.7}{}}
\@input{bibliography.aux}
\@input{abstract.aux}
\@input{appendix.aux}
